…
``` r
library(tidyverse)

acs_url <- "https://raw.githubusercontent.com/JosiahParry/uitk/master/data-raw/acs_edu.csv"

acs_edu <- read_csv(acs_url)

filter(acs_edu, med_house_income > 90000)
```

    ## # A tibble: 472 x 7
    ##    med_house_income less_than_hs hs_grad some_coll  bach white   black
    ##               <dbl>        <dbl>   <dbl>     <dbl> <dbl> <dbl>   <dbl>
    ##  1           105735       0.0252  0.196      0.221 0.325 0.897 0.0122 
    ##  2            97417       0.0625  0.254      0.227 0.284 0.969 0.00710
    ##  3            91469       0.0337  0.203      0.263 0.305 0.865 0.00523
    ##  4           110765       0.0548  0.152      0.185 0.312 0.605 0.0338 
    ##  5            92250       0.0228  0.166      0.194 0.254 0.939 0.00548
    ##  6            99167       0.0504  0.263      0.291 0.236 0.921 0.00666
    ##  7            97700       0.0357  0.232      0.230 0.289 0.848 0.0924 
    ##  8            90139       0.0709  0.271      0.282 0.214 0.902 0.0261 
    ##  9            90102       0.0555  0.155      0.249 0.250 0.810 0.00544
    ## 10           105625       0.0719  0.0523     0.229 0.242 0.587 0.0741 
    ## # … with 462 more rows
…
